BigDataAnalytics.utf8
…
df %>% group_by(League_from) %>% count()

## # A tibble: 118 x 2
## # Groups:   League_from [118]
##    League_from           n
##    <fct>             <int>
##  1 " Argentina"         66
##  2 " Australia"          1
##  3 " Brazil"            89
##  4 " Bulgaria"           6
##  5 " Canada"             1
##  6 " Chile"             10
##  7 " China"              4
##  8 " Colombia"           5
##  9 " Croatia"           12
## 10 " Czech Republic"     8
## #  with 108 more rows
…
df %>% group_by(Team_from) %>% count(sort= TRUE) 

## # A tibble: 570 x 2
## # Groups:   Team_from [570]
##    Team_from           n
##    <fct>           <int>
##  1 Inter              68
##  2 Spurs              63
##  3 Juventus           59
##  4 Chelsea            57
##  5 FC Porto           56
##  6 Liverpool          56
##  7 Real Madrid        53
##  8 Atltico Madrid    52
##  9 Benfica            52
## 10 Udinese Calcio     51
## #  with 560 more rows
…
